(EX) Electronic medical record (as a SQL refresher) — DATA_ENG 300 Data Engineering Studio
…
C:\Users\moses\AppData\Local\Temp\ipykernel_11824\342381945.py:5: UserWarning: pandas only supports SQLAlchemy connectable (engine/connection) or database string URI or sqlite3 DBAPI2 connection. Other DBAPI2 objects are not tested. Please consider using SQLAlchemy.
  df.to_sql("PENGUINS", conn, index=False)

-1

conn.close()

conn.sql(
    """
    SELECT * FROM PENGUINS;
    """
)

┌─────────┬───────────┬────────────────┬───────────────┬───────────────────┬─────────────┬─────────┐
│ species │  island   │ bill_length_mm │ bill_depth_mm │ flipper_length_mm │ body_mass_g │   sex   │
│ varchar │  varchar  │     float      │     float     │       float       │    float    │ varchar │
├─────────┼───────────┼────────────────┼───────────────┼───────────────────┼─────────────┼─────────┤
│ Adelie  │ Torgersen │           39.1 │          18.7 │             181.0 │      3750.0 │ MALE    │
│ Adelie  │ Torgersen │           39.5 │          17.4 │             186.0 │      3800.0 │ FEMALE  │
│ Adelie  │ Torgersen │           40.3 │          18.0 │             195.0 │      3250.0 │ FEMALE  │
│ Adelie  │ Torgersen │           NULL │          NULL │              NULL │        NULL │ NULL    │
│ Adelie  │ Torgersen │           36.7 │          19.3 │             193.0 │      3450.0 │ FEMALE  │
│ Adelie  │ Torgersen │           39.3 │          20.6 │             190.0 │      3650.0 │ MALE    │
│ Adelie  │ Torgersen │           38.9 │          17.8 │             181.0 │      3625.0 │ FEMALE  │
│ Adelie  │ Torgersen │           39.2 │          19.6 │             195.0 │      4675.0 │ MALE    │
│ Adelie  │ Torgersen │           34.1 │          18.1 │             193.0 │      3475.0 │ NULL    │
│ Adelie  │ Torgersen │           42.0 │          20.2 │             190.0 │      4250.0 │ NULL    │
│   ·     │   ·       │             ·  │            ·  │               ·   │         ·   │  ·      │
│   ·     │   ·       │             ·  │            ·  │               ·   │         ·   │  ·      │
│   ·     │   ·       │             ·  │            ·  │               ·   │         ·   │  ·      │
│ Gentoo  │ Biscoe    │           46.2 │          14.1 │             217.0 │      4375.0 │ FEMALE  │
│ Gentoo  │ Biscoe    │           55.1 │          16.0 │             230.0 │      5850.0 │ MALE    │
│ Gentoo  │ Biscoe    │           44.5 │          15.7 │             217.0 │      4875.0 │ NULL    │
│ Gentoo  │ Biscoe    │           48.8 │          16.2 │             222.0 │      6000.0 │ MALE    │
│ Gentoo  │ Biscoe    │           47.2 │          13.7 │             214.0 │      4925.0 │ FEMALE  │
│ Gentoo  │ Biscoe    │           NULL │          NULL │              NULL │        NULL │ NULL    │
│ Gentoo  │ Biscoe    │           46.8 │          14.3 │             215.0 │      4850.0 │ FEMALE  │
│ Gentoo  │ Biscoe    │           50.4 │          15.7 │             222.0 │      5750.0 │ MALE    │
│ Gentoo  │ Biscoe    │           45.2 │          14.8 │             212.0 │      5200.0 │ FEMALE  │
│ Gentoo  │ Biscoe    │           49.9 │          16.1 │             213.0 │      5400.0 │ MALE    │
├─────────┴───────────┴────────────────┴───────────────┴───────────────────┴─────────────┴─────────┤
│ 344 rows (20 shown)                                                                    7 columns │
└──────────────────────────────────────────────────────────────────────────────────────────────────┘
…
